…
mode_hdci: 最頻値で最高密度区間

median_qi: 中央値でパーセンタイル

mean_qi：平均値でパーセンタイル

mode_qi：最頻値でパーセンタイル

試しに各市町村の潜在SMR\(\theta\)の事後分布の中央値と最高密度区間を抽出して見ます。

fit %>% spread_draws(theta[r]) %>%
   median_hdci()

## # A tibble: 59 x 7
##        r theta .lower .upper .width .point .interval
##    <int> <dbl>  <dbl>  <dbl>  <dbl> <chr>  <chr>    
##  1     1 0.778  0.556  0.999  0.950 median hdci     
##  2     2 1.00   0.668  1.41   0.950 median hdci     
##  3     3 2.22   1.71   2.78   0.950 median hdci     
##  4     4 1.01   0.784  1.26   0.950 median hdci     
##  5     5 1.28   0.746  1.85   0.950 median hdci     
##  6     6 1.14   0.699  1.62   0.950 median hdci     
##  7     7 1.06   0.546  1.64   0.950 median hdci     
##  8     8 1.29   0.650  1.99   0.950 median hdci     
##  9     9 1.10   0.622  1.65   0.950 median hdci     
## 10    10 1.46   0.824  2.18   0.950 median hdci     
## # ... with 49 more rows
…
